{
  "clients": {
    "d1": {
      "title": "DataQcd",
      "favicon": "https://static.wixstatic.com/media/50c126_1823cb3a2f3a4583b95a851786050815%7Emv2.png/v1/fill/w_32%2Ch_32%2Clg_1%2Cusm_0.66_1.00_0.01/50c126_1823cb3a2f3a4583b95a851786050815%7Emv2.png",
      "headerName": "",
      "loginLogo": "/assets/images/svg_components/logo.png",
      "headerLogo": "/assets/images/svg_components/logo.png"
    },
    "d2": {
      "title": "Testing Whiz Pro",
      "favicon": "/assets/images/svg_components/logo-white.png",
      "headerName": "Testing Whiz Pro",
      "loginLogo": "/assets/images/svg_components/logo-white.png",
      "headerLogo": "/assets/images/svg_components/logo-white.png"
    },
    "d3": {
      "title": "Shift Tester",
      "favicon": "/assets/images/shiftTester.png",
      "headerName": "",
      "loginLogo": "/assets/images/shiftTester.png",
      "headerLogo": "/assets/images/shiftTester.png"
    },
    "NCB": {
      "title": "Testing Whiz Pro",
      "favicon": "/assets/images/svg_components/logo-white.png",
      "headerName": "Testing Whiz Pro",
      "loginLogo": "/assets/images/svg_components/logo-white.png",
      "headerLogo": "/assets/images/svg_components/logo-white.png"
    },
    "NPW": {
      "title": "Shift Tester",
      "favicon": "/assets/images/shiftTester.png",
      "headerName": "",
      "loginLogo": "/assets/images/shiftTester.png",
      "headerLogo": "/assets/images/shiftTester.png"
    }
  },
  "flowComponents": [
    {
      "name": "Input Source",
      "icon": "/assets/images/components/input (grey).svg",
      "hasOutput": true,
      "type": "InputSource",
      "active": true
    },
    {
      "name": "Data Compare",
      "icon": "/assets/images/components/Data Compare (grey).svg",
      "hasInput": true,
      "hasOutput": false,
      "active": true,
      "maxConnections": 2,
      "type": "DataCompare",
      "isRoot": true,
      "isNavigate": true
    },
    {
      "name": "Input Source",
      "icon": "/assets/images/components/target (grey).svg",
      "hasOutput": true,
      "type": "InputSource",
      "active": true
    },
    {
      "name": "Select Columns",
      "icon": "/assets/images/components/Select Columns (grey).svg",
      "hasInput": true,
      "hasOutput": true,
      "type": "SelectColumns",
      "isNavigate": true
    },
    {
      "name": "Column Type",
      "icon": "/assets/images/components/Column Type (grey).svg",
      "hasInput": true,
      "hasOutput": true,
      "type": "ColumnType",
      "isNavigate": true
    },
    {
      "name": "Filter Rows",
      "icon": "/assets/images/components/Filter Rows (grey).svg",
      "hasInput": true,
      "hasOutput": true,
      "type": "FilterRows",
      "isNavigate": true
    },
    {
      "name": "Remove Duplicates",
      "icon": "/assets/images/components/Remove Duplicates (grey).svg",
      "hasInput": true,
      "hasOutput": true,
      "type": "RemoveDuplicates",
      "isNavigate": true
    },
    {
      "name": "Add Column",
      "icon": "/assets/images/components/Add Column(grey).svg",
      "hasInput": true,
      "hasOutput": true,
      "type": "AddColumn",
      "active": true,
      "isNavigate": true
    },
    {
      "name": "Data Quality",
      "icon": "/assets/images/components/Data Quality (grey).svg",
      "hasInput": true,
      "hasOutput": false,
      "type": "DataQuality",
      "isRoot": true,
      "isNavigate": true
    },
    {
      "name": "Data Profile",
      "icon": "/assets/images/components/Data Profile (grey).svg",
      "hasInput": true,
      "hasOutput": false,
      "type": "DataProfile",
      "isRoot": true,
      "isNavigate": true
    },
    {
      "name": "Sql Transformation",
      "icon": "/assets/images/components/Sql Transformation (grey).svg",
      "hasInput": true,
      "hasOutput": true,
      "type": "SqlTransformation",
      "active": false,
      "isNavigate": true
    },
    {
      "name": "Output",
      "icon": "/assets/images/components/Output (grey).svg",
      "hasInput": true,
      "hasOutput": false,
      "active": true,
      "type": "Output",
      "isRoot": true,
      "isNavigate": true
    },
    {
      "name": "Command",
      "icon": "/assets/images/components/Command (grey).svg",
      "hasInput": true,
      "hasOutput": true,
      "active": false,
      "isNavigate": true
    }
  ],
  "PreDefinedDqRules": [
    {
      "ruleId": "PreDefinedRules",
      "ruleName": "greaterThan100",
      "ruleDescription": "$COL>100",
      "ruleType": "SQL_WHERE",
      "accessType": "public",
      "dataType": "greaterThan100"
    },
    {
      "ruleId": "PreDefinedRules",
      "ruleName": "lessThan20",
      "ruleDescription": "$COL<20",
      "ruleType": "SQL_WHERE",
      "accessType": "public",
      "dataType": "lessThan20"
    },
    {
      "ruleId": "PreDefinedRules",
      "ruleName": "ruleUpperCase",
      "ruleDescription": "Upper($COL)",
      "ruleType": "sqlTransform",
      "accessType": "public",
      "dataType": "ruleUpperCase"
    },
    {
      "ruleId": "PreDefinedRules",
      "ruleName": "ruleLowerCase",
      "ruleDescription": "Lower($COL)",
      "ruleType": "sqlTransform",
      "accessType": "public",
      "dataType": "ruleLowerCase"
    },
    {
      "ruleId": "PreDefinedRules",
      "ruleName": "numberRegExp",
      "ruleDescription": "[0-9]",
      "ruleType": "REGULAR_EXPRESSION",
      "accessType": "public",
      "dataType": "numberRegExp6"
    },
    {
      "ruleId": "PreDefinedRules",
      "ruleName": "charRegExpLower",
      "ruleDescription": "[a-z]",
      "ruleType": "REGULAR_EXPRESSION",
      "accessType": "public",
      "dataType": "charRegExpLower"
    },
    {
      "ruleId": "PreDefinedRules",
      "ruleName": "charRegExpUpper",
      "ruleDescription": "[A-Z]",
      "ruleType": "REGULAR_EXPRESSION",
      "accessType": "public",
      "dataType": "charRegExpUpper"
    }
  ]
}
